…
Resultatet af vores sammenligning er en "logisk vektor". Og den kan vi bruge til
at "subsette" vores datasæt, så vi kun får de rækker, der matcher en "TRUE" 
værdi. Funktionen `subset()` er vores ven:


~~~
subset(FEV, Smoke == 0)
~~~
{: .language-r}



~~~
# A tibble: 589 × 6
      Id   Age   FEV   Hgt   Sex Smoke
   <dbl> <dbl> <dbl> <dbl> <dbl> <dbl>
 1   301     9  1.71  57       0     0
 2   451     8  1.72  67.5     0     0
 3   501     7  1.72  54.5     0     0
 4   642     9  1.56  53       1     0
 5   901     9  1.90  57       1     0
 6  1701     8  2.34  61       0     0
 7  1752     6  1.92  58       0     0
 8  1753     6  1.42  56       0     0
 9  1901     8  1.99  58.5     0     0
10  1951     9  1.94  60       0     0
# ℹ 579 more rows
…
