…
~~~
who %>% 
  select(-iso2)
~~~
{: .language-r}



~~~
# A tibble: 405,440 × 9
   country     iso3   year new   diag  sex   age_low age_high value
   <chr>       <chr> <dbl> <chr> <chr> <chr> <chr>      <dbl> <dbl>
 1 Afghanistan AFG    1980 new   sp    m     00            14    NA
 2 Afghanistan AFG    1980 new   sp    m     15            24    NA
 3 Afghanistan AFG    1980 new   sp    m     25            34    NA
 4 Afghanistan AFG    1980 new   sp    m     35            44    NA
 5 Afghanistan AFG    1980 new   sp    m     45            54    NA
 6 Afghanistan AFG    1980 new   sp    m     55            64    NA
 7 Afghanistan AFG    1980 new   sp    m     65            99    NA
 8 Afghanistan AFG    1980 new   sp    f     00            14    NA
 9 Afghanistan AFG    1980 new   sp    f     15            24    NA
10 Afghanistan AFG    1980 new   sp    f     25            34    NA
# ℹ 405,430 more rows
…
