…
Datasættet indeholder to sæt observationer - for det er et tvillingestudie.

Nøjes med at se på denne del af datasættet, hvor vi kun har den  ene 
tvilling med, og dropper ID.

~~~
boneden %>% 
  select(age:fs1) 
~~~
{: .language-r}



~~~
# A tibble: 41 × 13
     age   zyg   ht1   wt1  tea1  cof1  alc1  cur1  men1  pyr1   ls1   fn1   fs1
   <dbl> <dbl> <dbl> <dbl> <dbl> <dbl> <dbl> <dbl> <dbl> <dbl> <dbl> <dbl> <dbl>
 1    27     2   162    57    35     0     1     1     0   0    0.81  0.72  1   
 2    42     2   165    76    42     2     3     5     1   0    1.01  0.74  0.99
 3    59     2   150   114    12     0     0     0     1   0    0.75  0.63  1.05
 4    61     1   159    62    56     0     0     0     1   0    0.81  0.64  1.12
 5    47     2   159    58    28    14     0     0     0   0    0.78  0.7   1.14
 6    33     2   163    49    35     0     3     1     0   0    0.86  0.56  1.13
 7    45     1   169    78    42     0     1     1     0   0    0.95  0.83  1.16
 8    73     1   160    76    42    14    14     8     1  25    0.76  0.56  1.05
 9    43     2   162    64     7    28     8     3     0   0.5  0.83  0.65  1.07
10    43     2   165    58     7    21     6     0     1   0    1.01  0.9   1.3 
# ℹ 31 more rows
…
